<svg xmlns="http://www.w3.org/2000/svg" viewBox="0 0 512 512">
  <defs/>
  <path class="close-back" fill="#ffe6e2" d="M416 512H96c-53.023 0-96-42.977-96-96V96C0 42.977 42.977 0 96 0h320c53.023 0 96 42.977 96 96v320c0 53.023-42.977 96-96 96zm0 0"/>
  <g class="cross" fill="#C62828">
    <path d="M342.734 312.574L199.426 169.266c-6.258-6.258-16.387-6.258-22.625 0l-7.535 7.535c-6.258 6.254-6.258 16.383 0 22.625l143.308 143.308c6.258 6.258 16.387 6.258 22.625 0l7.535-7.535c6.258-6.254 6.258-16.383 0-22.625zm0 0"/>
    <path d="M312.574 169.266L169.266 312.574c-6.258 6.258-6.258 16.387 0 22.625l7.535 7.535c6.254 6.258 16.383 6.258 22.625 0l143.308-143.308c6.258-6.258 6.258-16.387 0-22.625l-7.535-7.535c-6.254-6.258-16.383-6.258-22.625 0zm0 0"/>
  </g>
</svg>
